{
    "token": "<replace this with your private token>",
    "projects": ["276"],
    "labels": ["Needs Changes", "Needs Review", "documentation", "enhancement"],
    "conflicting_labels": [["Needs Changes", "Needs Review", "Approved"],
                           ["enhancement", "documentation"]]
}
